jaenmarcos.com
…
df <- data %>%
  filter(!is.na(bloomberg.closing_price)) %>%
  distinct(sym, date, bloomberg.closing_price) %>%
  mutate(year = format(as.Date(date, format='%Y.%m.%d'),"%Y")) %>%
  filter(year == 2019) %>%
  group_by(sym) %>%
  arrange(date) %>%
  filter(n() >= 250) %>%
  fill(bloomberg.closing_price, .direction = "down") %>%
  ungroup() %>%
  pivot_wider(names_from = "sym", values_from = "bloomberg.closing_price") %>%
  dplyr::select(-year)
print(df)

## # A tibble: 251 × 297
##    date         BGU BKL.F  CAGG   CBH   CBO   CCX   CDZ   CEW   CGL   CGR   CHB
##    <IDate>    <dbl> <dbl> <dbl> <dbl> <dbl> <dbl> <dbl> <dbl> <dbl> <dbl> <dbl>
##  1 2019-01-02  21.1  17.8  47.7  18.4  18.2  5.5   23.7  11.2  11.0  27.4  17.3
##  2 2019-01-03  20.6  17.9  48.1  18.4  18.3  5.8   23.6  11.1  11.0  27.3  17.4
##  3 2019-01-04  21.1  18.2  47.8  18.4  18.3  6.1   23.8  11.2  11    27.9  17.7
##  4 2019-01-07  21    18.3  47.9  18.4  18.2  6.15  24.0  11.2  11.0  27.7  17.8
##  5 2019-01-08  21.1  18.4  47.9  18.4  18.2  6.5   24.2  11.3  11.0  27.9  17.8
##  6 2019-01-09  21.2  18.3  47.8  18.4  18.2  7.11  24.5  11.5  11.0  27.8  18.0
##  7 2019-01-10  21.2  18.3  47.9  18.4  18.3  7.2   24.7  11.6  11.0  28.2  18.0
##  8 2019-01-11  21.2  18.3  47.9  18.4  18.3  7.1   24.8  11.6  11.0  28.5  18.0
##  9 2019-01-14  21.3  18.2  47.9  18.4  18.3  6.91  24.8  11.6  11.0  28.3  18.0
## 10 2019-01-15  21.5  18.2  47.9  18.4  18.3  7.24  25.0  11.7  11.0  28.5  18.0
## # ℹ 241 more rows
## # ℹ 285 more variables: CIE <dbl>, CIF <dbl>, CJP <dbl>, CLG <dbl>, CLU <dbl>,
## #   CMR <dbl>, COW <dbl>, CPD <dbl>, CRQ <dbl>, CSD <dbl>, CUD <dbl>,
## #   CVD <dbl>, CWO <dbl>, CWW <dbl>, CYBR <dbl>, DGRC <dbl>, DIVS <dbl>,
## #   DLR <dbl>, DXB <dbl>, DXG <dbl>, DXP <dbl>, DXU <dbl>, EQL <dbl>,
## #   FCCD <dbl>, FCID <dbl>, FCRR <dbl>, FCUD <dbl>, FHQ <dbl>, FIE <dbl>,
## #   FLCI <dbl>, FLEM <dbl>, FLUS <dbl>, FSL <dbl>, HAB <dbl>, HAC <dbl>, …

Calculate correlations and identify pairs

df.corr <- df %>% dplyr::select(where(is.numeric))
df_pairs <- cor(df.corr) %>%
  as.data.frame() %>%
  mutate(var1 = rownames(.)) %>%
  gather(var2, value, -var1) %>%
  arrange(desc(value)) %>%
  group_by(value) %>%
  filter(row_number() == 1) %>%
  filter(value > 0.7, !var1 == var2)
print(df_pairs)

## # A tibble: 13,757 × 3
## # Groups:   value [13,757]
##    var1  var2  value
##    <chr> <chr> <dbl>
##  1 XQQ   QQC.F 1.00 
##  2 ZQQ   XQQ   1.00 
##  3 ZSP   VFV   1.00 
##  4 ZQQ   QQC.F 1.00 
##  5 ZUE   VSP   1.00 
##  6 XUU   VUN   0.999
##  7 ZSP   XUS   0.999
##  8 ZUE   XSP   0.999
##  9 XUH   VUS   0.999
## 10 ZUE   HSU   0.999
## # ℹ 13,747 more rows
…
